{
	"96954354971467776": "びーでぃーてとら",
	"688051347224133658": "ゆういつしん、くりすうぃるそん",
	"105674789196206080": "しゅうじんばんごうごーきゅーろくさん",
	"96948800584687616": "ろばんに",
	"351370890744823820": "あゆあゆ",
	"243738520416550912": "ぎどどんがす",
	"244786940308750336": "さかなぎ",
	"144814772746059776": "かりープロ",
	"97339292476510208": "しめじ",
	"329395943977910272": "たかはしけんじ",
	"348376480855883776": "るるいえ",
	"106029552555327488": "あんぱん",
	"96948910739701760": "ようなし",
	"105675393981276160": "みすたーあんだーばーかとう",
	"146139806504583168": "にゅあもっぷ",
	"179626414016823296": "とぉぉぉぉおおかびー"
}